…
I will remove the following from the data: - The 24 customers who are
missing Income data because it is a very small fraction of the data -
The 3 customers who are over the age of 100

### Let’s check out the categorical variables <a name="catvar"></a>

``` r
mkt_data %>%
  select_if(is.character) # list out all the categorical variables
```

    ## # A tibble: 2,240 x 4
    ##    Education  Marital_Status Country Generation
    ##    <chr>      <chr>          <chr>   <chr>     
    ##  1 Graduation Divorced       SP      Gen-X     
    ##  2 Graduation Single         CA      Boomer    
    ##  3 Graduation Married        US      Boomer    
    ##  4 Graduation Together       AUS     Gen-X     
    ##  5 Graduation Single         SP      Millenial 
    ##  6 PhD        Single         SP      Boomer    
    ##  7 2n Cycle   Married        GER     Boomer    
    ##  8 Graduation Together       SP      Gen-X     
    ##  9 PhD        Married        US      Boomer    
    ## 10 PhD        Married        IND     Boomer    
    ## # ... with 2,230 more rows
…
